185.81.81.217	2020-04-17 16:49:04.904
185.81.81.217	2020-04-17 16:49:36.328
185.81.81.217	2020-04-17 16:49:36.673
185.81.81.217	2020-04-17 16:49:36.846
185.81.81.217	2020-04-17 16:49:37.018
185.81.81.217	2020-04-17 16:49:37.191
185.81.81.217	2020-04-17 16:49:37.364
185.81.81.217	2020-04-17 16:49:37.536
185.81.81.217	2020-04-17 16:49:37.716
185.81.81.217	2020-04-17 16:49:37.895
185.81.81.217	2020-04-17 16:49:43.076
185.81.81.217	2020-04-17 16:50:12.816
185.81.81.217	2020-04-17 17:04:25.257
185.81.81.217	2020-04-17 17:04:31.681
185.81.81.217	2020-04-17 17:04:37.884
185.81.81.217	2020-04-17 17:04:44.269
185.81.81.217	2020-04-17 17:04:50.619
185.81.81.217	2020-04-17 17:04:57.0
185.81.81.217	2020-04-17 17:05:03.361
185.81.81.217	2020-04-17 17:05:09.54
185.81.81.217	2020-04-17 17:05:15.902
